%YAML 1.1
%TAG !u! tag:unity3d.com,2011:
--- !u!114 &-4805394306139794667
MonoBehaviour:
  m_ObjectHideFlags: 11
  m_CorrespondingSourceObject: {fileID: 0}
  m_PrefabInstance: {fileID: 0}
  m_PrefabAsset: {fileID: 0}
  m_GameObject: {fileID: 0}
  m_Enabled: 1
  m_EditorHideFlags: 0
  m_Script: {fileID: 11500000, guid: d0353a89b1f911e48b9e16bdc9f2e058, type: 3}
  m_Name: 
  m_EditorClassIdentifier: 
  version: 1
--- !u!21 &2100000
Material:
  serializedVersion: 6
  m_ObjectHideFlags: 0
  m_CorrespondingSourceObject: {fileID: 0}
  m_PrefabInstance: {fileID: 0}
  m_PrefabAsset: {fileID: 0}
  m_Name: Red
  m_Shader: {fileID: 4800000, guid: 9fa9770619dc8ce4b83c3ac10ec70b38, type: 3}
  m_ShaderKeywords: TCP2_DISABLE_WRAPPED_LIGHT TCP2_UV_NORMALS_FULL _EMISSION _GLOSSYREFLECTIONS_OFF
  m_LightmapFlags: 4
  m_EnableInstancingVariants: 0
  m_DoubleSidedGI: 0
  m_CustomRenderQueue: -1
  stringTagMap: {}
  disabledShaderPasses: []
  m_SavedProperties:
    serializedVersion: 3
    m_TexEnvs:
    - _BaseMap:
        m_Texture: {fileID: 0}
        m_Scale: {x: 1, y: 1}
        m_Offset: {x: 0, y: 0}
    m_Floats:
    - _RampSmoothing: 0.001
    - _RampThreshold: 0.428
    - _ReceiveShadowsOff: 1
    - _RimMax: 1
    - _RimMin: 1
    - __dummy__: 0
    m_Colors:
    - _BaseColor: {r: 0.9339623, g: 0.4978195, b: 0.4978195, a: 1}
    - _HColor: {r: 0.8207547, g: 0.80139726, b: 0.80139726, a: 1}
    - _RimColor: {r: 0.8, g: 0.8, b: 0.8, a: 0.5}
    - _SColor: {r: 0.6226415, g: 0.6226415, b: 0.6226415, a: 1}
