%YAML 1.1
%TAG !u! tag:unity3d.com,2011:
--- !u!114 &-4805394306139794667
MonoBehaviour:
  m_ObjectHideFlags: 11
  m_CorrespondingSourceObject: {fileID: 0}
  m_PrefabInstance: {fileID: 0}
  m_PrefabAsset: {fileID: 0}
  m_GameObject: {fileID: 0}
  m_Enabled: 1
  m_EditorHideFlags: 0
  m_Script: {fileID: 11500000, guid: d0353a89b1f911e48b9e16bdc9f2e058, type: 3}
  m_Name: 
  m_EditorClassIdentifier: 
  version: 1
--- !u!21 &2100000
Material:
  serializedVersion: 6
  m_ObjectHideFlags: 0
  m_CorrespondingSourceObject: {fileID: 0}
  m_PrefabInstance: {fileID: 0}
  m_PrefabAsset: {fileID: 0}
  m_Name: Screen - Copy
  m_Shader: {fileID: 4800000, guid: 0a71efd66e69b8e40965dcef81b96e36, type: 3}
  m_ShaderKeywords: TCP2_DISABLE_WRAPPED_LIGHT TCP2_UV_NORMALS_FULL _CELPRIMARYMODE_SINGLE
    _EMISSION _GLOSSYREFLECTIONS_OFF _TEXTUREBLENDINGMODE_MULTIPLY _UNITYSHADOWMODE_NONE
  m_LightmapFlags: 4
  m_EnableInstancingVariants: 0
  m_DoubleSidedGI: 0
  m_CustomRenderQueue: -1
  stringTagMap: {}
  disabledShaderPasses: []
  m_SavedProperties:
    serializedVersion: 3
    m_TexEnvs:
    - _BaseMap:
        m_Texture: {fileID: 0}
        m_Scale: {x: 1, y: 1}
        m_Offset: {x: 0, y: 0}
    - _BaseMap1:
        m_Texture: {fileID: 0}
        m_Scale: {x: 1, y: 1}
        m_Offset: {x: 0, y: 0}
    - _BlendTex1:
        m_Texture: {fileID: 0}
        m_Scale: {x: 1, y: 1}
        m_Offset: {x: 0, y: 0}
    - _BlendTex2:
        m_Texture: {fileID: 0}
        m_Scale: {x: 1, y: 1}
        m_Offset: {x: 0, y: 0}
    - _BumpMap:
        m_Texture: {fileID: 0}
        m_Scale: {x: 1, y: 1}
        m_Offset: {x: 0, y: 0}
    - _CelCurveTexture:
        m_Texture: {fileID: 0}
        m_Scale: {x: 1, y: 1}
        m_Offset: {x: 0, y: 0}
    - _CelStepTexture:
        m_Texture: {fileID: 0}
        m_Scale: {x: 1, y: 1}
        m_Offset: {x: 0, y: 0}
    - _DetailAlbedoMap:
        m_Texture: {fileID: 0}
        m_Scale: {x: 1, y: 1}
        m_Offset: {x: 0, y: 0}
    - _DetailMask:
        m_Texture: {fileID: 0}
        m_Scale: {x: 1, y: 1}
        m_Offset: {x: 0, y: 0}
    - _DetailNormalMap:
        m_Texture: {fileID: 0}
        m_Scale: {x: 1, y: 1}
        m_Offset: {x: 0, y: 0}
    - _EmissionMap:
        m_Texture: {fileID: 0}
        m_Scale: {x: 1, y: 1}
        m_Offset: {x: 0, y: 0}
    - _MainTex:
        m_Texture: {fileID: 0}
        m_Scale: {x: 1, y: 1}
        m_Offset: {x: 0, y: 0}
    - _MetallicGlossMap:
        m_Texture: {fileID: 0}
        m_Scale: {x: 1, y: 1}
        m_Offset: {x: 0, y: 0}
    - _OcclusionMap:
        m_Texture: {fileID: 0}
        m_Scale: {x: 1, y: 1}
        m_Offset: {x: 0, y: 0}
    - _ParallaxMap:
        m_Texture: {fileID: 0}
        m_Scale: {x: 1, y: 1}
        m_Offset: {x: 0, y: 0}
    - _Ramp:
        m_Texture: {fileID: 2800000, guid: ccad9b0732473ee4e95de81e50e9050f, type: 3}
        m_Scale: {x: 1, y: 1}
        m_Offset: {x: 0, y: 0}
    - _RampOtherLights:
        m_Texture: {fileID: 0}
        m_Scale: {x: 1, y: 1}
        m_Offset: {x: 0, y: 0}
    - _ShadowColor:
        m_Texture: {fileID: 0}
        m_Scale: {x: 1, y: 1}
        m_Offset: {x: 0, y: 0}
    - _SketchTexture:
        m_Texture: {fileID: 0}
        m_Scale: {x: 1, y: 1}
        m_Offset: {x: 0, y: 0}
    - _SpecGlossMap:
        m_Texture: {fileID: 0}
        m_Scale: {x: 1, y: 1}
        m_Offset: {x: 0, y: 0}
    - _StylizedThreshold:
        m_Texture: {fileID: 0}
        m_Scale: {x: 0, y: 1}
        m_Offset: {x: 0, y: 0}
    m_Floats:
    - _AlphaClip: 0
    - _Blend: 0
    - _BumpScale: 1
    - _CelExtraEnabled: 0
    - _CelNumSteps: 3
    - _CelPrimaryMode: 1
    - _Cull: 2
    - _Cutoff: 0.5
    - _DetailNormalMapScale: 1
    - _DstBlend: 0
    - _EnvironmentReflections: 1
    - _FlatRimEdgeSmoothness: 0.5
    - _FlatRimLightAlign: 0
    - _FlatRimSize: 0.5
    - _FlatSpecularEdgeSmoothness: 0
    - _FlatSpecularSize: 0.1
    - _Flatness: 1
    - _FlatnessExtra: 1
    - _GlossMapScale: 0
    - _Glossiness: 0
    - _GlossyReflections: 0
    - _GradientAngle: 0
    - _GradientCenterX: 0
    - _GradientCenterY: 0
    - _GradientEnabled: 0
    - _GradientSize: 10
    - _LightContribution: 0
    - _Metallic: 0
    - _Mode: 0
    - _NormalsSource: 0
    - _NormalsUVType: 0
    - _OcclusionStrength: 1
    - _OutlineWidth: 2.43
    - _Parallax: 0.02
    - _QueueOffset: 0
    - _RampSmooth: 0.2
    - _RampSmoothAdd: 0.75
    - _RampSmoothing: 0.001
    - _RampSmoothingOtherLights: 0.001
    - _RampTextureOffset: 0.5
    - _RampTextureSize: 1
    - _RampThreshold: 0.42
    - _RampThresholdOtherLights: 0.22
    - _ReceiveShadows: 1
    - _ReceiveShadowsOff: 1
    - _RimEnabled: 0
    - _RimMax: 1
    - _RimMin: 1
    - _RimStrength: 0.5
    - _SelfShadingSize: 0.5
    - _SelfShadingSizeExtra: 0.6
    - _ShadowEdgeSize: 0.05
    - _ShadowEdgeSizeExtra: 0.05
    - _Shadow_HSV_H: 0
    - _Shadow_HSV_S: 0
    - _Shadow_HSV_V: 0
    - _SketchMax: 1
    - _SketchMin: 0
    - _SketchTexture_OffsetSpeed: 120
    - _Smoothness: 0.5
    - _SmoothnessTextureChannel: 0
    - _SpecBlend: 1
    - _SpecSmooth: 1
    - _SpecularEnabled: 0
    - _SpecularHighlights: 1
    - _SpecularRoughnessPBR: 0.5
    - _SpecularSmoothness: 0
    - _SpecularToonBands: 3
    - _SrcBlend: 1
    - _Surface: 0
    - _TCP2_DISABLE_WRAPPED_LIGHT: 1
    - _TCP2_RAMPTEXT: 0
    - _TCP2_SPEC_TOON: 0
    - _TCP2_STYLIZED_FRESNEL: 0
    - _TextureBlendingMode: 0
    - _TextureImpact: 1
    - _UVSec: 0
    - _UnityShadowMode: 0
    - _UnityShadowPower: 0.2
    - _UnityShadowSharpness: 1
    - _UseSketch: 0
    - _UseTexturedThreshold: 0
    - _VertexColorsEnabled: 0
    - _WorkflowMode: 1
    - _ZWrite: 1
    - __BeginGroup_ShadowHSV: 0
    - __EndGroup: 0
    - __dummy__: 0
    m_Colors:
    - _BaseColor: {r: 0.9528302, g: 0.9528302, b: 0.9528302, a: 1}
    - _Color: {r: 0.4, g: 0.7921569, b: 0.5853092, a: 1}
    - _ColorDim: {r: 0.28702387, g: 0.8113208, b: 0.56899464, a: 1}
    - _ColorDimCurve: {r: 0.85023, g: 0.85034, b: 0.85045, a: 0.85056}
    - _ColorDimExtra: {r: 0.85023, g: 0.85034, b: 0.85045, a: 0.85056}
    - _ColorDimSteps: {r: 0.85023, g: 0.85034, b: 0.85045, a: 0.85056}
    - _ColorGradient: {r: 0.85023, g: 0.85034, b: 0.85045, a: 0.85056}
    - _DiffuseTint: {r: 1, g: 1, b: 1, a: 1}
    - _Emission: {r: 0.6718703, g: 0.28844693, b: 0.22161166, a: 1}
    - _EmissionColor: {r: 0.23584908, g: 0.23584908, b: 0.23584908, a: 1}
    - _FlatRimColor: {r: 0.85023, g: 0.85034, b: 0.85045, a: 0.85056}
    - _FlatSpecularColor: {r: 0.4, g: 0.7921569, b: 0.5853092, a: 1}
    - _HColor: {r: 0.75, g: 0.75, b: 0.75, a: 1}
    - _OutlineColorVertex: {r: 0, g: 0, b: 0, a: 1}
    - _RimColor: {r: 0.8, g: 0.8, b: 0.8, a: 0.5}
    - _SColor: {r: 0.2, g: 0.2, b: 0.2, a: 1}
    - _SilhouetteColor: {r: 0, g: 0, b: 0, a: 0.33}
    - _SpecColor: {r: 0.2, g: 0.2, b: 0.2, a: 1}
    - _SpecularColor: {r: 0.5, g: 0.5, b: 0, a: 1}
    - _UnityShadowColor: {r: 0.85023, g: 0.85034, b: 0.85045, a: 0.85056}
    - _VColorBlendOffset: {r: 0, g: 0, b: 0, a: 0}
    - _VColorBlendSmooth: {r: 0.25, g: 0.25, b: 0.25, a: 0.25}
