%YAML 1.1
%TAG !u! tag:unity3d.com,2011:
--- !u!114 &11400000
MonoBehaviour:
  m_ObjectHideFlags: 0
  m_CorrespondingSourceObject: {fileID: 0}
  m_PrefabInstance: {fileID: 0}
  m_PrefabAsset: {fileID: 0}
  m_GameObject: {fileID: 0}
  m_Enabled: 1
  m_EditorHideFlags: 0
  m_Script: {fileID: 11500000, guid: cafd587095bcea846a88e261fce20a16, type: 3}
  m_Name: The B Team
  m_EditorClassIdentifier: 
  Title: The B Team
  Genre: {fileID: 11400000, guid: 1c4da07374a80bd44ad537afcb4c35ec, type: 2}
  RunTime: 14
  image: {fileID: 0}
