%YAML 1.1
%TAG !u! tag:unity3d.com,2011:
--- !u!114 &11400000
MonoBehaviour:
  m_ObjectHideFlags: 0
  m_CorrespondingSourceObject: {fileID: 0}
  m_PrefabInstance: {fileID: 0}
  m_PrefabAsset: {fileID: 0}
  m_GameObject: {fileID: 0}
  m_Enabled: 1
  m_EditorHideFlags: 0
  m_Script: {fileID: 11500000, guid: a61a95410b201ac42bf35e41bde6f68c, type: 3}
  m_Name: Romance
  m_EditorClassIdentifier: 
  genre: 3
  icon: {fileID: 21300000, guid: fc23c9d76574ef54c84d345ad3f84fa9, type: 3}
  color: {r: 0.990566, g: 0, b: 0.6865679, a: 0}
