%YAML 1.1
%TAG !u! tag:unity3d.com,2011:
--- !u!114 &11400000
MonoBehaviour:
  m_ObjectHideFlags: 0
  m_CorrespondingSourceObject: {fileID: 0}
  m_PrefabInstance: {fileID: 0}
  m_PrefabAsset: {fileID: 0}
  m_GameObject: {fileID: 0}
  m_Enabled: 1
  m_EditorHideFlags: 0
  m_Script: {fileID: 11500000, guid: d0d8b9ac2215fb04a9a36361c98d9f70, type: 3}
  m_Name: Medium
  m_EditorClassIdentifier: 
  name: 1
  dayOfTheWeek: Thursday
  pointsRequired: 600
  customerPatienceModifier: 0.9
  availableGenres: 0100000004000000020000000000000003000000
  maxCustomers: 7
